{
  "id": "3362732.78bd38c",
  "type": "subflow",
  "name": "Ask Track Id",
  "info": "",
  "in": [
    {
      "x": 220,
      "y": 240,
      "wires": [
        {
          "id": "25daeb00.f3f734"
        }
      ]
    }
  ],
  "out": [
    {
      "x": 520,
      "y": 240,
      "wires": [
        {
          "id": "25daeb00.f3f734",
          "port": 0
        }
      ]
    }
  ],
  "flow": [
    {
      "id": "25daeb00.f3f734",
      "type": "function",
      "z": "3362732.78bd38c",
      "name": "",
      "func": "msg.payload = {\n    message : 'ask_for_tracking_id'\n}\nreturn msg;",
      "outputs": 1,
      "noerr": 0,
      "x": 370,
      "y": 240,
      "wires": [
        []
      ]
    }
  ]
}